[2014-11-15 23:07:07.122] [ERROR] post-routes - [ReferenceError: question is not defined]
ReferenceError: question is not defined
    at /windows/projects/websites/rq/server/routes/post.js:62:33
    at _fulfilled (/windows/projects/websites/rq/server/node_modules/q/q.js:787:54)
    at self.promiseDispatch.done (/windows/projects/websites/rq/server/node_modules/q/q.js:816:30)
    at Promise.promise.promiseDispatch (/windows/projects/websites/rq/server/node_modules/q/q.js:749:13)
    at /windows/projects/websites/rq/server/node_modules/q/q.js:557:44
    at flush (/windows/projects/websites/rq/server/node_modules/q/q.js:108:17)
    at process._tickCallback (node.js:415:13)
[2014-11-15 23:10:41.650] [ERROR] post-routes - [ReferenceError: question is not defined]
ReferenceError: question is not defined
    at /windows/projects/websites/rq/server/routes/post.js:74:33
    at _fulfilled (/windows/projects/websites/rq/server/node_modules/q/q.js:787:54)
    at self.promiseDispatch.done (/windows/projects/websites/rq/server/node_modules/q/q.js:816:30)
    at Promise.promise.promiseDispatch (/windows/projects/websites/rq/server/node_modules/q/q.js:749:13)
    at /windows/projects/websites/rq/server/node_modules/q/q.js:557:44
    at flush (/windows/projects/websites/rq/server/node_modules/q/q.js:108:17)
    at process._tickCallback (node.js:415:13)
[2014-11-15 23:16:10.406] [ERROR] post-routes - [TypeError: Object { _id: 5464486f8c2f61661f0550cd,
  posted_by: 
   { _id: 54629b923c3a12cd73f833cb,
     facebookID: '1390466587910645',
     __v: 0,
     deleted_date: null,
     updated_date: Tue Nov 11 2014 18:28:18 GMT-0500 (EST),
     preferredDisplayName: 'Helen Amhdaieagbif Wongsky',
     name: { first: 'Helen', last: 'Wongsky', middle: 'Amhdaieagbif' },
     displayName: 'Helen Amhdaieagbif Wongsky',
     created_date: Tue Nov 11 2014 18:28:18 GMT-0500 (EST),
     id: '54629b923c3a12cd73f833cb' },
  title: 'REST TITLE10',
  body: 'REST BODY10',
  __v: 0,
  deleted_date: null,
  updated_date: Thu Nov 13 2014 00:58:07 GMT-0500 (EST),
  root: 
   { _id: 54519871f32841c10f974fb0,
     title: 'REST TITLE10',
     body: 'REST BODY1110',
     __v: 0,
     posted_by: 545aff3681f8c0c03641afae,
     deleted_date: null,
     updated_date: Sat Nov 15 2014 23:16:10 GMT-0500 (EST),
     root: null,
     parent: null,
     posted_date: Wed Oct 29 2014 21:46:25 GMT-0400 (EDT),
     created_date: Wed Oct 29 2014 21:46:25 GMT-0400 (EDT),
     id: '54519871f32841c10f974fb0' },
  parent: 
   { _id: 54519871f32841c10f974fb0,
     title: 'REST TITLE10',
     body: 'REST BODY1110',
     __v: 0,
     posted_by: 545aff3681f8c0c03641afae,
     deleted_date: null,
     updated_date: Sat Nov 15 2014 23:16:10 GMT-0500 (EST),
     root: null,
     parent: null,
     posted_date: Wed Oct 29 2014 21:46:25 GMT-0400 (EDT),
     created_date: Wed Oct 29 2014 21:46:25 GMT-0400 (EDT),
     id: '54519871f32841c10f974fb0' },
  posted_date: Thu Nov 13 2014 00:58:07 GMT-0500 (EST),
  created_date: Thu Nov 13 2014 00:58:07 GMT-0500 (EST),
  id: '5464486f8c2f61661f0550cd' } has no method 'toObject']
TypeError: Object { _id: 5464486f8c2f61661f0550cd,
  posted_by: 
   { _id: 54629b923c3a12cd73f833cb,
     facebookID: '1390466587910645',
     __v: 0,
     deleted_date: null,
     updated_date: Tue Nov 11 2014 18:28:18 GMT-0500 (EST),
     preferredDisplayName: 'Helen Amhdaieagbif Wongsky',
     name: { first: 'Helen', last: 'Wongsky', middle: 'Amhdaieagbif' },
     displayName: 'Helen Amhdaieagbif Wongsky',
     created_date: Tue Nov 11 2014 18:28:18 GMT-0500 (EST),
     id: '54629b923c3a12cd73f833cb' },
  title: 'REST TITLE10',
  body: 'REST BODY10',
  __v: 0,
  deleted_date: null,
  updated_date: Thu Nov 13 2014 00:58:07 GMT-0500 (EST),
  root: 
   { _id: 54519871f32841c10f974fb0,
     title: 'REST TITLE10',
     body: 'REST BODY1110',
     __v: 0,
     posted_by: 545aff3681f8c0c03641afae,
     deleted_date: null,
     updated_date: Sat Nov 15 2014 23:16:10 GMT-0500 (EST),
     root: null,
     parent: null,
     posted_date: Wed Oct 29 2014 21:46:25 GMT-0400 (EDT),
     created_date: Wed Oct 29 2014 21:46:25 GMT-0400 (EDT),
     id: '54519871f32841c10f974fb0' },
  parent: 
   { _id: 54519871f32841c10f974fb0,
     title: 'REST TITLE10',
     body: 'REST BODY1110',
     __v: 0,
     posted_by: 545aff3681f8c0c03641afae,
     deleted_date: null,
     updated_date: Sat Nov 15 2014 23:16:10 GMT-0500 (EST),
     root: null,
     parent: null,
     posted_date: Wed Oct 29 2014 21:46:25 GMT-0400 (EDT),
     created_date: Wed Oct 29 2014 21:46:25 GMT-0400 (EDT),
     id: '54519871f32841c10f974fb0' },
  posted_date: Thu Nov 13 2014 00:58:07 GMT-0500 (EST),
  created_date: Thu Nov 13 2014 00:58:07 GMT-0500 (EST),
  id: '5464486f8c2f61661f0550cd' } has no method 'toObject'
    at model.post.toObject (/windows/projects/websites/rq/server/lib/persistence/stores/posts.js:92:38)
    at model.Document.inspect (/windows/projects/websites/rq/server/node_modules/mongoose/lib/document.js:1668:23)
    at formatValue (util.js:212:25)
    at inspect (util.js:140:10)
    at Console.exports.format (util.js:50:20)
    at Console.log (console.js:53:34)
    at /windows/projects/websites/rq/server/routes/post.js:74:13
    at _fulfilled (/windows/projects/websites/rq/server/node_modules/q/q.js:787:54)
    at self.promiseDispatch.done (/windows/projects/websites/rq/server/node_modules/q/q.js:816:30)
    at Promise.promise.promiseDispatch (/windows/projects/websites/rq/server/node_modules/q/q.js:749:13)
[2014-11-19 00:59:44.038] [ERROR] post-routes - { message: 'Validation failed',
  name: 'ValidationError',
  errors: 
   { title: 
      { message: 'Path `title` is required.',
        name: 'ValidatorError',
        path: 'title',
        type: 'required',
        value: undefined } } }
ValidationError: Path `title` is required.
    at model.Document.invalidate (/windows/projects/websites/rq/server/node_modules/mongoose/lib/document.js:1021:32)
    at /windows/projects/websites/rq/server/node_modules/mongoose/lib/document.js:970:16
    at validate (/windows/projects/websites/rq/server/node_modules/mongoose/lib/schematype.js:610:7)
    at /windows/projects/websites/rq/server/node_modules/mongoose/lib/schematype.js:627:9
    at Array.forEach (native)
    at SchemaString.SchemaType.doValidate (/windows/projects/websites/rq/server/node_modules/mongoose/lib/schematype.js:614:19)
    at /windows/projects/websites/rq/server/node_modules/mongoose/lib/document.js:968:9
    at process._tickCallback (node.js:415:13)
[2014-11-19 01:04:23.925] [ERROR] post-routes - [TypeError: Cannot call method 'add' of undefined]
TypeError: Cannot call method 'add' of undefined
    at /windows/projects/websites/rq/server/lib/persistence/stores/posts.js:29:19
    at _fulfilled (/windows/projects/websites/rq/server/node_modules/q/q.js:787:54)
    at self.promiseDispatch.done (/windows/projects/websites/rq/server/node_modules/q/q.js:816:30)
    at Promise.promise.promiseDispatch (/windows/projects/websites/rq/server/node_modules/q/q.js:749:13)
    at /windows/projects/websites/rq/server/node_modules/q/q.js:557:44
    at flush (/windows/projects/websites/rq/server/node_modules/q/q.js:108:17)
    at process._tickCallback (node.js:415:13)
[2014-11-28 18:30:08.644] [ERROR] post-routes - [RangeError: Maximum call stack size exceeded]
[2014-11-28 18:30:17.313] [ERROR] post-routes - [RangeError: Maximum call stack size exceeded]
[2014-11-28 18:32:12.864] [ERROR] post-routes - [RangeError: Maximum call stack size exceeded]
[2014-11-28 18:32:49.336] [ERROR] post-routes - [RangeError: Maximum call stack size exceeded]
[2014-11-28 18:32:54.342] [ERROR] post-routes - [RangeError: Maximum call stack size exceeded]
[2014-11-28 18:37:02.160] [ERROR] post-routes - [RangeError: Maximum call stack size exceeded]
[2014-11-28 18:37:02.186] [ERROR] post-routes - [RangeError: Maximum call stack size exceeded]
[2014-12-28 17:45:21.779] [ERROR] post-routes - { [error: password authentication failed for user "rq"]
  name: 'error',
  length: 91,
  severity: 'FATAL',
  code: '28P01',
  detail: undefined,
  hint: undefined,
  position: undefined,
  internalPosition: undefined,
  internalQuery: undefined,
  where: undefined,
  file: 'auth.c',
  line: '304',
  routine: 'auth_failed' }
error: password authentication failed for user "rq"
    at Connection.parseE (/storage/projects/websites/rq/server/node_modules/pg/lib/connection.js:534:11)
    at Connection.parseMessage (/storage/projects/websites/rq/server/node_modules/pg/lib/connection.js:361:17)
    at Socket.<anonymous> (/storage/projects/websites/rq/server/node_modules/pg/lib/connection.js:105:22)
    at Socket.EventEmitter.emit (events.js:95:17)
    at Socket.<anonymous> (_stream_readable.js:746:14)
    at Socket.EventEmitter.emit (events.js:92:17)
    at emitReadable_ (_stream_readable.js:408:10)
    at emitReadable (_stream_readable.js:404:5)
    at readableAddChunk (_stream_readable.js:165:9)
    at Socket.Readable.push (_stream_readable.js:127:10)
[2014-12-28 17:45:45.313] [ERROR] post-routes - { [error: password authentication failed for user "rq"]
  name: 'error',
  length: 91,
  severity: 'FATAL',
  code: '28P01',
  detail: undefined,
  hint: undefined,
  position: undefined,
  internalPosition: undefined,
  internalQuery: undefined,
  where: undefined,
  file: 'auth.c',
  line: '304',
  routine: 'auth_failed' }
error: password authentication failed for user "rq"
    at Connection.parseE (/storage/projects/websites/rq/server/node_modules/pg/lib/connection.js:534:11)
    at Connection.parseMessage (/storage/projects/websites/rq/server/node_modules/pg/lib/connection.js:361:17)
    at Socket.<anonymous> (/storage/projects/websites/rq/server/node_modules/pg/lib/connection.js:105:22)
    at Socket.EventEmitter.emit (events.js:95:17)
    at Socket.<anonymous> (_stream_readable.js:746:14)
    at Socket.EventEmitter.emit (events.js:92:17)
    at emitReadable_ (_stream_readable.js:408:10)
    at emitReadable (_stream_readable.js:404:5)
    at readableAddChunk (_stream_readable.js:165:9)
    at Socket.Readable.push (_stream_readable.js:127:10)
[2014-12-28 17:46:37.824] [ERROR] post-routes - { [error: password authentication failed for user "rq"]
  name: 'error',
  length: 91,
  severity: 'FATAL',
  code: '28P01',
  detail: undefined,
  hint: undefined,
  position: undefined,
  internalPosition: undefined,
  internalQuery: undefined,
  where: undefined,
  file: 'auth.c',
  line: '304',
  routine: 'auth_failed' }
error: password authentication failed for user "rq"
    at Connection.parseE (/storage/projects/websites/rq/server/node_modules/pg/lib/connection.js:534:11)
    at Connection.parseMessage (/storage/projects/websites/rq/server/node_modules/pg/lib/connection.js:361:17)
    at Socket.<anonymous> (/storage/projects/websites/rq/server/node_modules/pg/lib/connection.js:105:22)
    at Socket.EventEmitter.emit (events.js:95:17)
    at Socket.<anonymous> (_stream_readable.js:746:14)
    at Socket.EventEmitter.emit (events.js:92:17)
    at emitReadable_ (_stream_readable.js:408:10)
    at emitReadable (_stream_readable.js:404:5)
    at readableAddChunk (_stream_readable.js:165:9)
    at Socket.Readable.push (_stream_readable.js:127:10)
[2014-12-28 17:49:08.252] [ERROR] post-routes - { [error: password authentication failed for user "rq"]
  name: 'error',
  length: 91,
  severity: 'FATAL',
  code: '28P01',
  detail: undefined,
  hint: undefined,
  position: undefined,
  internalPosition: undefined,
  internalQuery: undefined,
  where: undefined,
  file: 'auth.c',
  line: '304',
  routine: 'auth_failed' }
error: password authentication failed for user "rq"
    at Connection.parseE (/storage/projects/websites/rq/server/node_modules/pg/lib/connection.js:534:11)
    at Connection.parseMessage (/storage/projects/websites/rq/server/node_modules/pg/lib/connection.js:361:17)
    at Socket.<anonymous> (/storage/projects/websites/rq/server/node_modules/pg/lib/connection.js:105:22)
    at Socket.EventEmitter.emit (events.js:95:17)
    at Socket.<anonymous> (_stream_readable.js:746:14)
    at Socket.EventEmitter.emit (events.js:92:17)
    at emitReadable_ (_stream_readable.js:408:10)
    at emitReadable (_stream_readable.js:404:5)
    at readableAddChunk (_stream_readable.js:165:9)
    at Socket.Readable.push (_stream_readable.js:127:10)
[2014-12-28 18:08:05.598] [ERROR] post-routes - { [error: column "parentID" does not exist]
  name: 'error',
  length: 101,
  severity: 'ERROR',
  code: '42703',
  detail: undefined,
  hint: undefined,
  position: '29',
  internalPosition: undefined,
  internalQuery: undefined,
  where: undefined,
  file: 'parse_relation.c',
  line: '2655',
  routine: 'errorMissingColumn' }
error: column "parentID" does not exist
    at Connection.parseE (/storage/projects/websites/rq/server/node_modules/pg/lib/connection.js:534:11)
    at Connection.parseMessage (/storage/projects/websites/rq/server/node_modules/pg/lib/connection.js:361:17)
    at Socket.<anonymous> (/storage/projects/websites/rq/server/node_modules/pg/lib/connection.js:105:22)
    at Socket.EventEmitter.emit (events.js:95:17)
    at Socket.<anonymous> (_stream_readable.js:746:14)
    at Socket.EventEmitter.emit (events.js:92:17)
    at emitReadable_ (_stream_readable.js:408:10)
    at emitReadable (_stream_readable.js:404:5)
    at readableAddChunk (_stream_readable.js:165:9)
    at Socket.Readable.push (_stream_readable.js:127:10)
[2014-12-30 15:21:21.948] [ERROR] post-routes - { [error: column posts.parentID does not exist]
  name: 'error',
  length: 106,
  severity: 'ERROR',
  code: '42703',
  detail: undefined,
  hint: undefined,
  position: '184',
  internalPosition: undefined,
  internalQuery: undefined,
  where: undefined,
  file: 'parse_relation.c',
  line: '2639',
  routine: 'errorMissingColumn' }
error: column posts.parentID does not exist
    at Connection.parseE (/storage/projects/websites/rq/server/node_modules/pg/lib/connection.js:534:11)
    at Connection.parseMessage (/storage/projects/websites/rq/server/node_modules/pg/lib/connection.js:361:17)
    at Socket.<anonymous> (/storage/projects/websites/rq/server/node_modules/pg/lib/connection.js:105:22)
    at Socket.EventEmitter.emit (events.js:95:17)
    at Socket.<anonymous> (_stream_readable.js:746:14)
    at Socket.EventEmitter.emit (events.js:92:17)
    at emitReadable_ (_stream_readable.js:408:10)
    at emitReadable (_stream_readable.js:404:5)
    at readableAddChunk (_stream_readable.js:165:9)
    at Socket.Readable.push (_stream_readable.js:127:10)
[2015-01-20 00:00:45.894] [ERROR] post-routes - { [error: invalid input syntax for integer: "{}"]
  name: 'error',
  length: 81,
  severity: 'ERROR',
  code: '22P02',
  detail: undefined,
  hint: undefined,
  position: undefined,
  internalPosition: undefined,
  internalQuery: undefined,
  where: undefined,
  file: 'int8.c',
  line: '99',
  routine: 'scanint8' }
error: invalid input syntax for integer: "{}"
    at Connection.parseE (/storage/projects/websites/rq/server/node_modules/pg/lib/connection.js:534:11)
    at Connection.parseMessage (/storage/projects/websites/rq/server/node_modules/pg/lib/connection.js:361:17)
    at Socket.<anonymous> (/storage/projects/websites/rq/server/node_modules/pg/lib/connection.js:105:22)
    at Socket.EventEmitter.emit (events.js:95:17)
    at Socket.<anonymous> (_stream_readable.js:746:14)
    at Socket.EventEmitter.emit (events.js:92:17)
    at emitReadable_ (_stream_readable.js:408:10)
    at emitReadable (_stream_readable.js:404:5)
    at readableAddChunk (_stream_readable.js:165:9)
    at Socket.Readable.push (_stream_readable.js:127:10)
[2015-01-20 00:13:49.934] [ERROR] post-routes - { [error: record "new" has no field "postedon"]
  name: 'error',
  length: 240,
  severity: 'ERROR',
  code: '42703',
  detail: undefined,
  hint: undefined,
  position: undefined,
  internalPosition: undefined,
  internalQuery: undefined,
  where: 'SQL statement "SELECT NEW.postedOn IS NULL AND NEW.createdOn IS NOT NULL"\nPL/pgSQL function trigger_posts_default_posted_on() line 3 at IF',
  file: 'pl_exec.c',
  line: '4620',
  routine: 'exec_get_datum_type_info' }
error: record "new" has no field "postedon"
    at Connection.parseE (/storage/projects/websites/rq/server/node_modules/pg/lib/connection.js:534:11)
    at Connection.parseMessage (/storage/projects/websites/rq/server/node_modules/pg/lib/connection.js:361:17)
    at Socket.<anonymous> (/storage/projects/websites/rq/server/node_modules/pg/lib/connection.js:105:22)
    at Socket.EventEmitter.emit (events.js:95:17)
    at Socket.<anonymous> (_stream_readable.js:746:14)
    at Socket.EventEmitter.emit (events.js:92:17)
    at emitReadable_ (_stream_readable.js:408:10)
    at emitReadable (_stream_readable.js:404:5)
    at readableAddChunk (_stream_readable.js:165:9)
    at Socket.Readable.push (_stream_readable.js:127:10)
[2015-02-08 18:57:53.759] [ERROR] post-routes - { [error: column "posts_toggle_post_like($1, $2)" does not exist]
  name: 'error',
  length: 122,
  severity: 'ERROR',
  code: '42703',
  detail: undefined,
  hint: undefined,
  position: '8',
  internalPosition: undefined,
  internalQuery: undefined,
  where: undefined,
  file: 'parse_relation.c',
  line: '2655',
  routine: 'errorMissingColumn' }
error: column "posts_toggle_post_like($1, $2)" does not exist
    at Connection.parseE (/storage/projects/websites/rq/server/node_modules/pg/lib/connection.js:534:11)
    at Connection.parseMessage (/storage/projects/websites/rq/server/node_modules/pg/lib/connection.js:361:17)
    at Socket.<anonymous> (/storage/projects/websites/rq/server/node_modules/pg/lib/connection.js:105:22)
    at Socket.EventEmitter.emit (events.js:95:17)
    at Socket.<anonymous> (_stream_readable.js:746:14)
    at Socket.EventEmitter.emit (events.js:92:17)
    at emitReadable_ (_stream_readable.js:408:10)
    at emitReadable (_stream_readable.js:404:5)
    at readableAddChunk (_stream_readable.js:165:9)
    at Socket.Readable.push (_stream_readable.js:127:10)
[2015-02-08 19:19:05.149] [ERROR] post-routes - [TypeError: Cannot read property '0' of undefined]
TypeError: Cannot read property '0' of undefined
    at /storage/projects/websites/rq/server/lib/persistence/stores/posts.js:323:24
    at _fulfilled (/storage/projects/websites/rq/server/node_modules/q/q.js:787:54)
    at self.promiseDispatch.done (/storage/projects/websites/rq/server/node_modules/q/q.js:816:30)
    at Promise.promise.promiseDispatch (/storage/projects/websites/rq/server/node_modules/q/q.js:749:13)
    at /storage/projects/websites/rq/server/node_modules/q/q.js:557:44
    at flush (/storage/projects/websites/rq/server/node_modules/q/q.js:108:17)
    at process._tickCallback (node.js:415:13)
[2015-02-08 20:02:23.288] [ERROR] post-routes - { [error: structure of query does not match function result type]
  name: 'error',
  length: 275,
  severity: 'ERROR',
  code: '42804',
  detail: 'Returned type bigint does not match expected type integer in column 2.',
  hint: undefined,
  position: undefined,
  internalPosition: undefined,
  internalQuery: undefined,
  where: 'PL/pgSQL function posts_toggle_post_like(bigint,bigint) line 26 at RETURN QUERY',
  file: 'tupconvert.c',
  line: '113',
  routine: 'convert_tuples_by_position' }
error: structure of query does not match function result type
    at Connection.parseE (/storage/projects/websites/rq/server/node_modules/pg/lib/connection.js:534:11)
    at Connection.parseMessage (/storage/projects/websites/rq/server/node_modules/pg/lib/connection.js:361:17)
    at Socket.<anonymous> (/storage/projects/websites/rq/server/node_modules/pg/lib/connection.js:105:22)
    at Socket.EventEmitter.emit (events.js:95:17)
    at Socket.<anonymous> (_stream_readable.js:746:14)
    at Socket.EventEmitter.emit (events.js:92:17)
    at emitReadable_ (_stream_readable.js:408:10)
    at emitReadable (_stream_readable.js:404:5)
    at readableAddChunk (_stream_readable.js:165:9)
    at Socket.Readable.push (_stream_readable.js:127:10)
[2015-02-27 19:44:35.429] [ERROR] post-routes - [TypeError: Cannot read property 'id' of undefined]
TypeError: Cannot read property 'id' of undefined
    at Object.create.notifyLike.value [as notifyLike] (/storage/projects/websites/rq/server/lib/persistence/stores/notifications.js:166:40)
    at /storage/projects/websites/rq/server/routes/post.js:217:33
    at tryCatch1 (/storage/projects/websites/rq/server/node_modules/knex/node_modules/bluebird/js/main/util.js:45:21)
    at Promise._callHandler (/storage/projects/websites/rq/server/node_modules/knex/node_modules/bluebird/js/main/promise.js:571:13)
    at Promise._settlePromiseFromHandler (/storage/projects/websites/rq/server/node_modules/knex/node_modules/bluebird/js/main/promise.js:581:18)
    at Promise._settlePromiseAt (/storage/projects/websites/rq/server/node_modules/knex/node_modules/bluebird/js/main/promise.js:733:18)
    at Promise._settlePromises (/storage/projects/websites/rq/server/node_modules/knex/node_modules/bluebird/js/main/promise.js:845:14)
    at Async._consumeFunctionBuffer (/storage/projects/websites/rq/server/node_modules/knex/node_modules/bluebird/js/main/async.js:81:12)
    at Async.consumeFunctionBuffer (/storage/projects/websites/rq/server/node_modules/knex/node_modules/bluebird/js/main/async.js:40:14)
    at process._tickCallback (node.js:415:13)
