[2015-02-27 19:47:01.737] [ERROR] post-routes - [TypeError: Cannot read property 'id' of undefined]
TypeError: Cannot read property 'id' of undefined
    at Object.create.notifyLike.value [as notifyLike] (/storage/projects/websites/rq/server/lib/persistence/stores/notifications.js:166:40)
    at Runner_PG.<anonymous> (/storage/projects/websites/rq/server/routes/post.js:212:33)
    at tryCatch1 (/storage/projects/websites/rq/server/node_modules/knex/node_modules/bluebird/js/main/util.js:45:21)
    at Promise._callHandler (/storage/projects/websites/rq/server/node_modules/knex/node_modules/bluebird/js/main/promise.js:571:13)
    at Promise._settlePromiseFromHandler (/storage/projects/websites/rq/server/node_modules/knex/node_modules/bluebird/js/main/promise.js:581:18)
    at Promise._settlePromiseAt (/storage/projects/websites/rq/server/node_modules/knex/node_modules/bluebird/js/main/promise.js:733:18)
    at Promise._settlePromises (/storage/projects/websites/rq/server/node_modules/knex/node_modules/bluebird/js/main/promise.js:845:14)
    at Async._consumeFunctionBuffer (/storage/projects/websites/rq/server/node_modules/knex/node_modules/bluebird/js/main/async.js:81:12)
    at Async.consumeFunctionBuffer (/storage/projects/websites/rq/server/node_modules/knex/node_modules/bluebird/js/main/async.js:40:14)
    at process._tickCallback (node.js:415:13)
[2015-02-27 19:47:57.515] [ERROR] post-routes - [TypeError: Cannot read property 'id' of undefined]
TypeError: Cannot read property 'id' of undefined
    at Object.create.notifyLike.value [as notifyLike] (/storage/projects/websites/rq/server/lib/persistence/stores/notifications.js:166:40)
    at Runner_PG.<anonymous> (/storage/projects/websites/rq/server/routes/post.js:213:33)
    at tryCatch1 (/storage/projects/websites/rq/server/node_modules/knex/node_modules/bluebird/js/main/util.js:45:21)
    at Promise._callHandler (/storage/projects/websites/rq/server/node_modules/knex/node_modules/bluebird/js/main/promise.js:571:13)
    at Promise._settlePromiseFromHandler (/storage/projects/websites/rq/server/node_modules/knex/node_modules/bluebird/js/main/promise.js:581:18)
    at Promise._settlePromiseAt (/storage/projects/websites/rq/server/node_modules/knex/node_modules/bluebird/js/main/promise.js:733:18)
    at Promise._settlePromises (/storage/projects/websites/rq/server/node_modules/knex/node_modules/bluebird/js/main/promise.js:845:14)
    at Async._consumeFunctionBuffer (/storage/projects/websites/rq/server/node_modules/knex/node_modules/bluebird/js/main/async.js:81:12)
    at Async.consumeFunctionBuffer (/storage/projects/websites/rq/server/node_modules/knex/node_modules/bluebird/js/main/async.js:40:14)
    at process._tickCallback (node.js:415:13)
[2015-02-27 19:48:06.640] [ERROR] post-routes - [TypeError: Cannot read property 'id' of undefined]
TypeError: Cannot read property 'id' of undefined
    at Object.create.notifyLike.value [as notifyLike] (/storage/projects/websites/rq/server/lib/persistence/stores/notifications.js:166:40)
    at Runner_PG.<anonymous> (/storage/projects/websites/rq/server/routes/post.js:213:33)
    at tryCatch1 (/storage/projects/websites/rq/server/node_modules/knex/node_modules/bluebird/js/main/util.js:45:21)
    at Promise._callHandler (/storage/projects/websites/rq/server/node_modules/knex/node_modules/bluebird/js/main/promise.js:571:13)
    at Promise._settlePromiseFromHandler (/storage/projects/websites/rq/server/node_modules/knex/node_modules/bluebird/js/main/promise.js:581:18)
    at Promise._settlePromiseAt (/storage/projects/websites/rq/server/node_modules/knex/node_modules/bluebird/js/main/promise.js:733:18)
    at Promise._settlePromises (/storage/projects/websites/rq/server/node_modules/knex/node_modules/bluebird/js/main/promise.js:845:14)
    at Async._consumeFunctionBuffer (/storage/projects/websites/rq/server/node_modules/knex/node_modules/bluebird/js/main/async.js:81:12)
    at Async.consumeFunctionBuffer (/storage/projects/websites/rq/server/node_modules/knex/node_modules/bluebird/js/main/async.js:40:14)
    at process._tickCallback (node.js:415:13)
[2015-02-27 20:04:11.490] [ERROR] post-routes - [TypeError: Cannot read property 'id' of undefined]
TypeError: Cannot read property 'id' of undefined
    at Object.create.notifyLike.value [as notifyLike] (/storage/projects/websites/rq/server/lib/persistence/stores/notifications.js:168:40)
    at Runner_PG.PostRoutes.addComment (/storage/projects/websites/rq/server/routes/post.js:213:33)
    at tryCatch1 (/storage/projects/websites/rq/server/node_modules/knex/node_modules/bluebird/js/main/util.js:45:21)
    at Promise.module.exports.Promise._callHandler (/storage/projects/websites/rq/server/node_modules/knex/node_modules/bluebird/js/main/promise.js:571:13)
    at Promise.module.exports.Promise._settlePromiseFromHandler (/storage/projects/websites/rq/server/node_modules/knex/node_modules/bluebird/js/main/promise.js:581:18)
    at Promise.module.exports.Promise._settlePromiseAt (/storage/projects/websites/rq/server/node_modules/knex/node_modules/bluebird/js/main/promise.js:733:18)
    at Promise.module.exports.Promise._settlePromises (/storage/projects/websites/rq/server/node_modules/knex/node_modules/bluebird/js/main/promise.js:845:14)
    at Async._consumeFunctionBuffer (/storage/projects/websites/rq/server/node_modules/knex/node_modules/bluebird/js/main/async.js:81:12)
    at consumeFunctionBuffer (/storage/projects/websites/rq/server/node_modules/knex/node_modules/bluebird/js/main/async.js:40:14)
    at process._tickCallback (node.js:415:13)
[2015-02-27 20:15:38.208] [ERROR] post-routes - [TypeError: Cannot read property 'id' of undefined]
TypeError: Cannot read property 'id' of undefined
    at Object.create.notifyLike.value [as notifyLike] (/storage/projects/websites/rq/server/lib/persistence/stores/notifications.js:168:37)
    at Runner_PG.<anonymous> (/storage/projects/websites/rq/server/routes/post.js:213:33)
    at tryCatch1 (/storage/projects/websites/rq/server/node_modules/knex/node_modules/bluebird/js/main/util.js:45:21)
    at Promise._callHandler (/storage/projects/websites/rq/server/node_modules/knex/node_modules/bluebird/js/main/promise.js:571:13)
    at Promise._settlePromiseFromHandler (/storage/projects/websites/rq/server/node_modules/knex/node_modules/bluebird/js/main/promise.js:581:18)
    at Promise._settlePromiseAt (/storage/projects/websites/rq/server/node_modules/knex/node_modules/bluebird/js/main/promise.js:733:18)
    at Promise._settlePromises (/storage/projects/websites/rq/server/node_modules/knex/node_modules/bluebird/js/main/promise.js:845:14)
    at Async._consumeFunctionBuffer (/storage/projects/websites/rq/server/node_modules/knex/node_modules/bluebird/js/main/async.js:81:12)
    at Async.consumeFunctionBuffer (/storage/projects/websites/rq/server/node_modules/knex/node_modules/bluebird/js/main/async.js:40:14)
    at process._tickCallback (node.js:415:13)
[2015-02-27 20:17:23.251] [ERROR] post-routes - [TypeError: Cannot read property 'id' of undefined]
TypeError: Cannot read property 'id' of undefined
    at Object.create.notifyLike.value [as notifyLike] (/storage/projects/websites/rq/server/lib/persistence/stores/notifications.js:170:37)
    at Runner_PG.<anonymous> (/storage/projects/websites/rq/server/routes/post.js:213:33)
    at tryCatch1 (/storage/projects/websites/rq/server/node_modules/knex/node_modules/bluebird/js/main/util.js:45:21)
    at Promise._callHandler (/storage/projects/websites/rq/server/node_modules/knex/node_modules/bluebird/js/main/promise.js:571:13)
    at Promise._settlePromiseFromHandler (/storage/projects/websites/rq/server/node_modules/knex/node_modules/bluebird/js/main/promise.js:581:18)
    at Promise._settlePromiseAt (/storage/projects/websites/rq/server/node_modules/knex/node_modules/bluebird/js/main/promise.js:733:18)
    at Promise._settlePromises (/storage/projects/websites/rq/server/node_modules/knex/node_modules/bluebird/js/main/promise.js:845:14)
    at Async._consumeFunctionBuffer (/storage/projects/websites/rq/server/node_modules/knex/node_modules/bluebird/js/main/async.js:81:12)
    at Async.consumeFunctionBuffer (/storage/projects/websites/rq/server/node_modules/knex/node_modules/bluebird/js/main/async.js:40:14)
    at process._tickCallback (node.js:415:13)
[2015-02-27 20:17:52.088] [ERROR] post-routes - [Error: Store classes must specify their Schema object]
Error: Store classes must specify their Schema object
    at Object.create.Schema.get [as Schema] (/storage/projects/websites/rq/server/lib/persistence/stores/base.js:38:10)
    at Object.add (/storage/projects/websites/rq/server/lib/persistence/stores/base.js:143:42)
    at Object.create.notifyLike.value [as notifyLike] (/storage/projects/websites/rq/server/lib/persistence/stores/notifications.js:167:11)
    at Runner_PG.<anonymous> (/storage/projects/websites/rq/server/routes/post.js:213:33)
    at tryCatch1 (/storage/projects/websites/rq/server/node_modules/knex/node_modules/bluebird/js/main/util.js:45:21)
    at Promise._callHandler (/storage/projects/websites/rq/server/node_modules/knex/node_modules/bluebird/js/main/promise.js:571:13)
    at Promise._settlePromiseFromHandler (/storage/projects/websites/rq/server/node_modules/knex/node_modules/bluebird/js/main/promise.js:581:18)
    at Promise._settlePromiseAt (/storage/projects/websites/rq/server/node_modules/knex/node_modules/bluebird/js/main/promise.js:733:18)
    at Promise._settlePromises (/storage/projects/websites/rq/server/node_modules/knex/node_modules/bluebird/js/main/promise.js:845:14)
    at Async._consumeFunctionBuffer (/storage/projects/websites/rq/server/node_modules/knex/node_modules/bluebird/js/main/async.js:81:12)
[2015-03-01 14:50:06.515] [ERROR] post-routes - [TypeError: Property 'removeNotification' of object #<Object> is not a function]
TypeError: Property 'removeNotification' of object #<Object> is not a function
    at /storage/projects/websites/rq/server/routes/post.js:300:33
    at _fulfilled (/storage/projects/websites/rq/server/node_modules/q/q.js:787:54)
    at self.promiseDispatch.done (/storage/projects/websites/rq/server/node_modules/q/q.js:816:30)
    at Promise.promise.promiseDispatch (/storage/projects/websites/rq/server/node_modules/q/q.js:749:13)
    at /storage/projects/websites/rq/server/node_modules/q/q.js:557:44
    at flush (/storage/projects/websites/rq/server/node_modules/q/q.js:108:17)
    at process._tickCallback (node.js:415:13)
[2015-03-01 14:51:34.954] [ERROR] post-routes - [TypeError: Property 'removeNotification' of object #<Object> is not a function]
TypeError: Property 'removeNotification' of object #<Object> is not a function
    at /storage/projects/websites/rq/server/routes/post.js:301:33
    at _fulfilled (/storage/projects/websites/rq/server/node_modules/q/q.js:787:54)
    at self.promiseDispatch.done (/storage/projects/websites/rq/server/node_modules/q/q.js:816:30)
    at Promise.promise.promiseDispatch (/storage/projects/websites/rq/server/node_modules/q/q.js:749:13)
    at /storage/projects/websites/rq/server/node_modules/q/q.js:557:44
    at flush (/storage/projects/websites/rq/server/node_modules/q/q.js:108:17)
    at process._tickCallback (node.js:415:13)
[2015-03-01 15:00:37.770] [ERROR] post-routes - { [error: there is no parameter $1]
  name: 'error',
  length: 87,
  severity: 'ERROR',
  code: '42P02',
  detail: undefined,
  hint: undefined,
  position: '52',
  internalPosition: undefined,
  internalQuery: undefined,
  where: undefined,
  file: 'parse_expr.c',
  line: '822',
  routine: 'transformParamRef' }
error: there is no parameter $1
    at Connection.parseE (/storage/projects/websites/rq/server/node_modules/pg/lib/connection.js:534:11)
    at Connection.parseMessage (/storage/projects/websites/rq/server/node_modules/pg/lib/connection.js:361:17)
    at Socket.<anonymous> (/storage/projects/websites/rq/server/node_modules/pg/lib/connection.js:105:22)
    at Socket.EventEmitter.emit (events.js:95:17)
    at Socket.<anonymous> (_stream_readable.js:746:14)
    at Socket.EventEmitter.emit (events.js:92:17)
    at emitReadable_ (_stream_readable.js:408:10)
    at emitReadable (_stream_readable.js:404:5)
    at readableAddChunk (_stream_readable.js:165:9)
    at Socket.Readable.push (_stream_readable.js:127:10)
[2015-03-01 15:01:35.325] [ERROR] post-routes - { [error: there is no parameter $1]
  name: 'error',
  length: 87,
  severity: 'ERROR',
  code: '42P02',
  detail: undefined,
  hint: undefined,
  position: '52',
  internalPosition: undefined,
  internalQuery: undefined,
  where: undefined,
  file: 'parse_expr.c',
  line: '822',
  routine: 'transformParamRef' }
error: there is no parameter $1
    at Connection.parseE (/storage/projects/websites/rq/server/node_modules/pg/lib/connection.js:534:11)
    at Connection.parseMessage (/storage/projects/websites/rq/server/node_modules/pg/lib/connection.js:361:17)
    at Socket.<anonymous> (/storage/projects/websites/rq/server/node_modules/pg/lib/connection.js:105:22)
    at Socket.EventEmitter.emit (events.js:95:17)
    at Socket.<anonymous> (_stream_readable.js:746:14)
    at Socket.EventEmitter.emit (events.js:92:17)
    at emitReadable_ (_stream_readable.js:408:10)
    at emitReadable (_stream_readable.js:404:5)
    at readableAddChunk (_stream_readable.js:165:9)
    at Socket.Readable.push (_stream_readable.js:127:10)
[2015-03-01 15:01:42.868] [ERROR] post-routes - { [error: there is no parameter $1]
  name: 'error',
  length: 87,
  severity: 'ERROR',
  code: '42P02',
  detail: undefined,
  hint: undefined,
  position: '52',
  internalPosition: undefined,
  internalQuery: undefined,
  where: undefined,
  file: 'parse_expr.c',
  line: '822',
  routine: 'transformParamRef' }
error: there is no parameter $1
    at Connection.parseE (/storage/projects/websites/rq/server/node_modules/pg/lib/connection.js:534:11)
    at Connection.parseMessage (/storage/projects/websites/rq/server/node_modules/pg/lib/connection.js:361:17)
    at Socket.<anonymous> (/storage/projects/websites/rq/server/node_modules/pg/lib/connection.js:105:22)
    at Socket.EventEmitter.emit (events.js:95:17)
    at Socket.<anonymous> (_stream_readable.js:746:14)
    at Socket.EventEmitter.emit (events.js:92:17)
    at emitReadable_ (_stream_readable.js:408:10)
    at emitReadable (_stream_readable.js:404:5)
    at readableAddChunk (_stream_readable.js:165:9)
    at Socket.Readable.push (_stream_readable.js:127:10)
[2015-03-01 15:04:23.028] [ERROR] post-routes - { [error: there is no parameter $1]
  name: 'error',
  length: 87,
  severity: 'ERROR',
  code: '42P02',
  detail: undefined,
  hint: undefined,
  position: '52',
  internalPosition: undefined,
  internalQuery: undefined,
  where: undefined,
  file: 'parse_expr.c',
  line: '822',
  routine: 'transformParamRef' }
error: there is no parameter $1
    at Connection.parseE (/storage/projects/websites/rq/server/node_modules/pg/lib/connection.js:534:11)
    at Connection.parseMessage (/storage/projects/websites/rq/server/node_modules/pg/lib/connection.js:361:17)
    at Socket.<anonymous> (/storage/projects/websites/rq/server/node_modules/pg/lib/connection.js:105:22)
    at Socket.EventEmitter.emit (events.js:95:17)
    at Socket.<anonymous> (_stream_readable.js:746:14)
    at Socket.EventEmitter.emit (events.js:92:17)
    at emitReadable_ (_stream_readable.js:408:10)
    at emitReadable (_stream_readable.js:404:5)
    at readableAddChunk (_stream_readable.js:165:9)
    at Socket.Readable.push (_stream_readable.js:127:10)
[2015-03-08 14:52:45.471] [ERROR] post-routes - [Error: You must be logged in to view this page.]
Error: You must be logged in to view this page.
    at getPost (/storage/projects/websites/rq/server/routes/post.js:53:20)
    at Object.PostRoutes.getPost (/storage/projects/websites/rq/server/routes/post.js:182:3)
    at PostRoutes.getQuestion (/storage/projects/websites/rq/server/routes/post.js:170:14)
    at Layer.handle [as handle_request] (/storage/projects/websites/rq/server/node_modules/express/lib/router/layer.js:82:5)
    at next (/storage/projects/websites/rq/server/node_modules/express/lib/router/route.js:100:13)
    at Route.dispatch (/storage/projects/websites/rq/server/node_modules/express/lib/router/route.js:81:3)
    at Layer.handle [as handle_request] (/storage/projects/websites/rq/server/node_modules/express/lib/router/layer.js:82:5)
    at /storage/projects/websites/rq/server/node_modules/express/lib/router/index.js:234:24
    at Function.proto.process_params (/storage/projects/websites/rq/server/node_modules/express/lib/router/index.js:312:12)
    at /storage/projects/websites/rq/server/node_modules/express/lib/router/index.js:228:12
[2015-03-11 01:35:29.473] [ERROR] post-routes - { [error: null value in column "postedBy" violates not-null constraint]
  name: 'error',
  length: 268,
  severity: 'ERROR',
  code: '23502',
  detail: 'Failing row contains (12, new comment, null, null, 2015-03-11 01:35:29.460096-04, null, 2015-03-11 01:35:29.460096-04, null).',
  hint: undefined,
  position: undefined,
  internalPosition: undefined,
  internalQuery: undefined,
  where: undefined,
  file: 'execMain.c',
  line: '1630',
  routine: 'ExecConstraints' }
error: null value in column "postedBy" violates not-null constraint
    at Connection.parseE (/storage/projects/websites/rq/server/node_modules/pg/lib/connection.js:534:11)
    at Connection.parseMessage (/storage/projects/websites/rq/server/node_modules/pg/lib/connection.js:361:17)
    at Socket.<anonymous> (/storage/projects/websites/rq/server/node_modules/pg/lib/connection.js:105:22)
    at Socket.EventEmitter.emit (events.js:95:17)
    at Socket.<anonymous> (_stream_readable.js:746:14)
    at Socket.EventEmitter.emit (events.js:92:17)
    at emitReadable_ (_stream_readable.js:408:10)
    at emitReadable (_stream_readable.js:404:5)
    at readableAddChunk (_stream_readable.js:165:9)
    at Socket.Readable.push (_stream_readable.js:127:10)
[2015-03-23 18:08:21.624] [ERROR] post-routes - [Error: You must be logged in to view this page.]
Error: You must be logged in to view this page.
    at getPost (/storage/projects/websites/rq/server/routes/post.js:53:20)
    at PostRoutes.getPost (/storage/projects/websites/rq/server/routes/post.js:205:3)
    at Layer.handle [as handle_request] (/storage/projects/websites/rq/server/node_modules/express/lib/router/layer.js:82:5)
    at next (/storage/projects/websites/rq/server/node_modules/express/lib/router/route.js:100:13)
    at Route.dispatch (/storage/projects/websites/rq/server/node_modules/express/lib/router/route.js:81:3)
    at Layer.handle [as handle_request] (/storage/projects/websites/rq/server/node_modules/express/lib/router/layer.js:82:5)
    at /storage/projects/websites/rq/server/node_modules/express/lib/router/index.js:234:24
    at param (/storage/projects/websites/rq/server/node_modules/express/lib/router/index.js:331:14)
    at param (/storage/projects/websites/rq/server/node_modules/express/lib/router/index.js:347:14)
    at Function.proto.process_params (/storage/projects/websites/rq/server/node_modules/express/lib/router/index.js:391:3)
[2015-05-27 00:38:45.793] [ERROR] post-routes - { [error: type "long" does not exist]
  name: 'error',
  length: 85,
  severity: 'ERROR',
  code: '42704',
  detail: undefined,
  hint: undefined,
  position: '122',
  internalPosition: undefined,
  internalQuery: undefined,
  where: undefined,
  file: 'parse_type.c',
  line: '205',
  routine: 'typenameType' }
error: type "long" does not exist
    at Connection.parseE (/storage/projects/websites/rq/server/node_modules/pg/lib/connection.js:534:11)
    at Connection.parseMessage (/storage/projects/websites/rq/server/node_modules/pg/lib/connection.js:361:17)
    at Socket.<anonymous> (/storage/projects/websites/rq/server/node_modules/pg/lib/connection.js:105:22)
    at Socket.EventEmitter.emit (events.js:95:17)
    at Socket.<anonymous> (_stream_readable.js:746:14)
    at Socket.EventEmitter.emit (events.js:92:17)
    at emitReadable_ (_stream_readable.js:408:10)
    at emitReadable (_stream_readable.js:404:5)
    at readableAddChunk (_stream_readable.js:165:9)
    at Socket.Readable.push (_stream_readable.js:127:10)
[2015-05-27 00:39:57.594] [ERROR] post-routes - { [error: type "long" does not exist]
  name: 'error',
  length: 85,
  severity: 'ERROR',
  code: '42704',
  detail: undefined,
  hint: undefined,
  position: '122',
  internalPosition: undefined,
  internalQuery: undefined,
  where: undefined,
  file: 'parse_type.c',
  line: '205',
  routine: 'typenameType' }
error: type "long" does not exist
    at Connection.parseE (/storage/projects/websites/rq/server/node_modules/pg/lib/connection.js:534:11)
    at Connection.parseMessage (/storage/projects/websites/rq/server/node_modules/pg/lib/connection.js:361:17)
    at Socket.<anonymous> (/storage/projects/websites/rq/server/node_modules/pg/lib/connection.js:105:22)
    at Socket.EventEmitter.emit (events.js:95:17)
    at Socket.<anonymous> (_stream_readable.js:746:14)
    at Socket.EventEmitter.emit (events.js:92:17)
    at emitReadable_ (_stream_readable.js:408:10)
    at emitReadable (_stream_readable.js:404:5)
    at readableAddChunk (_stream_readable.js:165:9)
    at Socket.Readable.push (_stream_readable.js:127:10)
