{
	"name": "post",
	"columns": {
		"id": {
			"type": "Long",
			"required": true,
			"primaryKey": true
		},
		"body": {
			"type": "String",
			"required": true
		},
		"postedBy": {
			"type": {
				"schema": "user",
				"remoteColumn": "id"
			}
		},
		"postedOn": {
			"type": "Timestamp"
		},
		"deletedOn": {
			"type": "Timestamp"
		},
		"createdOn": {
			"type": "Timestamp",
			"required": true,
			"default": "<now>"
		},
		"updatedOn": {
			"type": "Timestamp"
		},
		"path": {
			"type": "String",
			"indexes": ["index_posts_path"]
		},
		"facebookId": {
			"type": "Long"
		}
	}
}
